{
  "accessors": [
    {
      "bufferView": 2,
      "componentType": 5126,
      "count": 131,
      "max": [
        147.40242004394531,
        -33.376316070556641,
        -30.790351867675781
      ],
      "min": [
        -147.6024169921875,
        -68.701873779296875,
        -119.76869201660156
      ],
      "type": "VEC3"
    },
    {
      "bufferView": 2,
      "byteOffset": 1572,
      "componentType": 5126,
      "count": 131,
      "max": [
        0.99999815225601196,
        0.94677692651748657,
        0.88996100425720215
      ],
      "min": [
        -0.99999815225601196,
        -0.99994045495986938,
        -0.94049167633056641
      ],
      "type": "VEC3"
    },
    {
      "bufferView": 3,
      "componentType": 5126,
      "count": 131,
      "max": [
        0.86910408735275269,
        0.74780839681625366,
        0.59108072519302368,
        1
      ],
      "min": [
        -0.99999499320983887,
        -0.7253800630569458,
        -0.99997532367706299,
        1
      ],
      "type": "VEC4"
    },
    {
      "bufferView": 1,
      "componentType": 5126,
      "count": 131,
      "max": [
        0.98794281482696533,
        0.98059672117233276
      ],
      "min": [
        -0.94836771488189697,
        0.043888986110687256
      ],
      "type": "VEC2"
    },
    {
      "bufferView": 0,
      "componentType": 5125,
      "count": 438,
      "max": [
        130
      ],
      "min": [
        0
      ],
      "type": "SCALAR"
    },
    {
      "bufferView": 2,
      "byteOffset": 3144,
      "componentType": 5126,
      "count": 158,
      "max": [
        147.40242004394531,
        -32.546184539794922,
        9.0522117614746094
      ],
      "min": [
        -147.6024169921875,
        -92.45977783203125,
        -119.76869201660156
      ],
      "type": "VEC3"
    },
    {
      "bufferView": 2,
      "byteOffset": 5040,
      "componentType": 5126,
      "count": 158,
      "max": [
        0.85276615619659424,
        0.99175500869750977,
        0.99981582164764404
      ],
      "min": [
        -0.85276615619659424,
        -1,
        -0.99988824129104614
      ],
      "type": "VEC3"
    },
    {
      "bufferView": 3,
      "byteOffset": 2096,
      "componentType": 5126,
      "count": 158,
      "max": [
        1,
        0.98372232913970947,
        0.85764032602310181,
        1
      ],
      "min": [
        -0.99999696016311646,
        -0.98329347372055054,
        -0.86865198612213135,
        -1
      ],
      "type": "VEC4"
    },
    {
      "bufferView": 1,
      "byteOffset": 1048,
      "componentType": 5126,
      "count": 158,
      "max": [
        0.99257105588912964,
        0.96937525272369385
      ],
      "min": [
        0.033062458038330078,
        0.012343645095825195
      ],
      "type": "VEC2"
    },
    {
      "bufferView": 0,
      "byteOffset": 1752,
      "componentType": 5125,
      "count": 519,
      "max": [
        157
      ],
      "min": [
        0
      ],
      "type": "SCALAR"
    },
    {
      "bufferView": 2,
      "byteOffset": 6936,
      "componentType": 5126,
      "count": 222,
      "max": [
        0.45562669634819031,
        8.2522087097167969,
        -58.990219116210938
      ],
      "min": [
        -0.45562669634819031,
        -1.5568267107009888,
        -61.023231506347656
      ],
      "type": "VEC3"
    },
    {
      "bufferView": 2,
      "byteOffset": 9600,
      "componentType": 5126,
      "count": 222,
      "max": [
        0.93340128660202026,
        0.97313976287841797,
        0.99271202087402344
      ],
      "min": [
        -0.93340128660202026,
        -0.99912488460540771,
        -0.99759835004806519
      ],
      "type": "VEC3"
    },
    {
      "bufferView": 3,
      "byteOffset": 4624,
      "componentType": 5126,
      "count": 222,
      "max": [
        1,
        0.96204107999801636,
        0.99839264154434204,
        1
      ],
      "min": [
        -1,
        -0.97926270961761475,
        -0.99839258193969727,
        -1
      ],
      "type": "VEC4"
    },
    {
      "bufferView": 1,
      "byteOffset": 2312,
      "componentType": 5126,
      "count": 222,
      "max": [
        1.0272936820983887,
        2.9794001579284668
      ],
      "min": [
        -0.027188479900360107,
        -2.2379801273345947
      ],
      "type": "VEC2"
    },
    {
      "bufferView": 0,
      "byteOffset": 3828,
      "componentType": 5125,
      "count": 504,
      "max": [
        221
      ],
      "min": [
        0
      ],
      "type": "SCALAR"
    },
    {
      "bufferView": 2,
      "byteOffset": 12264,
      "componentType": 5126,
      "count": 136,
      "max": [
        1.1407871246337891,
        0.5523185133934021,
        15.161341667175293
      ],
      "min": [
        -1.2435140609741211,
        -0.59050440788269043,
        -2.9231088161468506
      ],
      "type": "VEC3"
    },
    {
      "bufferView": 2,
      "byteOffset": 13896,
      "componentType": 5126,
      "count": 136,
      "max": [
        0.77099645137786865,
        0.98422336578369141,
        0.81729722023010254
      ],
      "min": [
        -0.7709963321685791,
        -0.98422330617904663,
        -0.83875912427902222
      ],
      "type": "VEC3"
    },
    {
      "bufferView": 3,
      "byteOffset": 8176,
      "componentType": 5126,
      "count": 136,
      "max": [
        1,
        0.86854904890060425,
        0.98422330617904663,
        1
      ],
      "min": [
        -1,
        -0.86854904890060425,
        -0.98422330617904663,
        1
      ],
      "type": "VEC4"
    },
    {
      "bufferView": 1,
      "byteOffset": 4088,
      "componentType": 5126,
      "count": 136,
      "max": [
        1.2593884468078613,
        2.4243178367614746
      ],
      "min": [
        -0.25938856601715088,
        -0.29895961284637451
      ],
      "type": "VEC2"
    },
    {
      "bufferView": 0,
      "byteOffset": 5844,
      "componentType": 5125,
      "count": 360,
      "max": [
        135
      ],
      "min": [
        0
      ],
      "type": "SCALAR"
    },
    {
      "bufferView": 2,
      "byteOffset": 15528,
      "componentType": 5126,
      "count": 4,
      "max": [
        1.3379776477813721,
        0,
        1.6940808386895892e-21
      ],
      "min": [
        -1.3379776477813721,
        -99.190101623535156,
        -1.6940508493534163e-21
      ],
      "type": "VEC3"
    },
    {
      "bufferView": 2,
      "byteOffset": 15576,
      "componentType": 5126,
      "count": 4,
      "max": [
        6.3306953497715768e-22,
        1.5191871420128839e-28,
        1
      ],
      "min": [
        6.3306953497715768e-22,
        1.5191871420128839e-28,
        1
      ],
      "type": "VEC3"
    },
    {
      "bufferView": 3,
      "byteOffset": 10352,
      "componentType": 5126,
      "count": 4,
      "max": [
        1,
        0,
        -6.3306958546425561e-22,
        1
      ],
      "min": [
        1,
        0,
        -6.3306958546425561e-22,
        1
      ],
      "type": "VEC4"
    },
    {
      "bufferView": 1,
      "byteOffset": 5176,
      "componentType": 5126,
      "count": 4,
      "max": [
        0.99999958276748657,
        0.99916678667068481
      ],
      "min": [
        -1.5854835510253906e-05,
        -28.768838882446289
      ],
      "type": "VEC2"
    },
    {
      "bufferView": 0,
      "byteOffset": 7284,
      "componentType": 5125,
      "count": 6,
      "max": [
        3
      ],
      "min": [
        0
      ],
      "type": "SCALAR"
    },
    {
      "bufferView": 2,
      "byteOffset": 15624,
      "componentType": 5126,
      "count": 4,
      "max": [
        1.3379776477813721,
        0,
        1.6940808386895892e-21
      ],
      "min": [
        -1.3379776477813721,
        -99.190101623535156,
        -1.6940508493534163e-21
      ],
      "type": "VEC3"
    },
    {
      "bufferView": 2,
      "byteOffset": 15672,
      "componentType": 5126,
      "count": 4,
      "max": [
        6.3306953497715768e-22,
        1.5191871420128839e-28,
        1
      ],
      "min": [
        6.3306953497715768e-22,
        1.5191871420128839e-28,
        1
      ],
      "type": "VEC3"
    },
    {
      "bufferView": 3,
      "byteOffset": 10416,
      "componentType": 5126,
      "count": 4,
      "max": [
        1,
        0,
        -6.3306958546425561e-22,
        1
      ],
      "min": [
        1,
        0,
        -6.3306958546425561e-22,
        1
      ],
      "type": "VEC4"
    },
    {
      "bufferView": 1,
      "byteOffset": 5208,
      "componentType": 5126,
      "count": 4,
      "max": [
        0.99999958276748657,
        0.99916678667068481
      ],
      "min": [
        -1.5854835510253906e-05,
        -28.768838882446289
      ],
      "type": "VEC2"
    },
    {
      "bufferView": 0,
      "byteOffset": 7308,
      "componentType": 5125,
      "count": 6,
      "max": [
        3
      ],
      "min": [
        0
      ],
      "type": "SCALAR"
    },
    {
      "bufferView": 2,
      "byteOffset": 15720,
      "componentType": 5126,
      "count": 4,
      "max": [
        1.3379776477813721,
        0,
        4.2351268709480511e-22
      ],
      "min": [
        -1.3379776477813721,
        -52.301742553710938,
        -4.2352026015949523e-22
      ],
      "type": "VEC3"
    },
    {
      "bufferView": 2,
      "byteOffset": 15768,
      "componentType": 5126,
      "count": 4,
      "max": [
        -1.5826738374428942e-22,
        -7.2570081510387231e-29,
        1
      ],
      "min": [
        -1.5826738374428942e-22,
        -7.2570081510387231e-29,
        1
      ],
      "type": "VEC3"
    },
    {
      "bufferView": 3,
      "byteOffset": 10480,
      "componentType": 5126,
      "count": 4,
      "max": [
        1,
        0,
        1.5826738374428942e-22,
        1
      ],
      "min": [
        1,
        0,
        1.5826738374428942e-22,
        1
      ],
      "type": "VEC4"
    },
    {
      "bufferView": 1,
      "byteOffset": 5240,
      "componentType": 5126,
      "count": 4,
      "max": [
        0.99999958276748657,
        0.99916678667068481
      ],
      "min": [
        -8.106231689453125e-06,
        -14.697142601013184
      ],
      "type": "VEC2"
    },
    {
      "bufferView": 0,
      "byteOffset": 7332,
      "componentType": 5125,
      "count": 6,
      "max": [
        3
      ],
      "min": [
        0
      ],
      "type": "SCALAR"
    },
    {
      "bufferView": 2,
      "byteOffset": 15816,
      "componentType": 5126,
      "count": 4,
      "max": [
        1.3379776477813721,
        0,
        0
      ],
      "min": [
        -1.3379882574081421,
        -106.61137390136719,
        0
      ],
      "type": "VEC3"
    },
    {
      "bufferView": 2,
      "byteOffset": 15864,
      "componentType": 5126,
      "count": 4,
      "max": [
        0,
        0,
        1
      ],
      "min": [
        0,
        0,
        1
      ],
      "type": "VEC3"
    },
    {
      "bufferView": 3,
      "byteOffset": 10544,
      "componentType": 5126,
      "count": 4,
      "max": [
        1,
        0,
        0,
        1
      ],
      "min": [
        1,
        0,
        0,
        1
      ],
      "type": "VEC4"
    },
    {
      "bufferView": 1,
      "byteOffset": 5272,
      "componentType": 5126,
      "count": 4,
      "max": [
        0.99999958276748657,
        0.99916678667068481
      ],
      "min": [
        -2.1100044250488281e-05,
        -30.996040344238281
      ],
      "type": "VEC2"
    },
    {
      "bufferView": 0,
      "byteOffset": 7356,
      "componentType": 5125,
      "count": 6,
      "max": [
        3
      ],
      "min": [
        0
      ],
      "type": "SCALAR"
    },
    {
      "bufferView": 2,
      "byteOffset": 15912,
      "componentType": 5126,
      "count": 4,
      "max": [
        1.3379781246185303,
        0,
        2.1004363037009557e-16
      ],
      "min": [
        -1.3379776477813721,
        -71.188812255859375,
        0
      ],
      "type": "VEC3"
    },
    {
      "bufferView": 2,
      "byteOffset": 15960,
      "componentType": 5126,
      "count": 4,
      "max": [
        0,
        2.950514781078166e-18,
        1
      ],
      "min": [
        0,
        2.950514781078166e-18,
        1
      ],
      "type": "VEC3"
    },
    {
      "bufferView": 3,
      "byteOffset": 10608,
      "componentType": 5126,
      "count": 4,
      "max": [
        1,
        0,
        0,
        1
      ],
      "min": [
        1,
        0,
        0,
        1
      ],
      "type": "VEC4"
    },
    {
      "bufferView": 1,
      "byteOffset": 5304,
      "componentType": 5126,
      "count": 4,
      "max": [
        0.99999958276748657,
        0.99916678667068481
      ],
      "min": [
        -1.1205673217773438e-05,
        -20.365352630615234
      ],
      "type": "VEC2"
    },
    {
      "bufferView": 0,
      "byteOffset": 7380,
      "componentType": 5125,
      "count": 6,
      "max": [
        3
      ],
      "min": [
        0
      ],
      "type": "SCALAR"
    },
    {
      "bufferView": 2,
      "byteOffset": 16008,
      "componentType": 5126,
      "count": 4,
      "max": [
        1.3379781246185303,
        0,
        2.1004363037009557e-16
      ],
      "min": [
        -1.3379776477813721,
        -71.188812255859375,
        0
      ],
      "type": "VEC3"
    },
    {
      "bufferView": 2,
      "byteOffset": 16056,
      "componentType": 5126,
      "count": 4,
      "max": [
        0,
        2.950514781078166e-18,
        1
      ],
      "min": [
        0,
        2.950514781078166e-18,
        1
      ],
      "type": "VEC3"
    },
    {
      "bufferView": 3,
      "byteOffset": 10672,
      "componentType": 5126,
      "count": 4,
      "max": [
        1,
        0,
        0,
        1
      ],
      "min": [
        1,
        0,
        0,
        1
      ],
      "type": "VEC4"
    },
    {
      "bufferView": 1,
      "byteOffset": 5336,
      "componentType": 5126,
      "count": 4,
      "max": [
        0.99999958276748657,
        0.99916678667068481
      ],
      "min": [
        -1.1205673217773438e-05,
        -20.365352630615234
      ],
      "type": "VEC2"
    },
    {
      "bufferView": 0,
      "byteOffset": 7404,
      "componentType": 5125,
      "count": 6,
      "max": [
        3
      ],
      "min": [
        0
      ],
      "type": "SCALAR"
    },
    {
      "bufferView": 4,
      "componentType": 5126,
      "count": 1,
      "max": [
        1,
        0,
        0,
        0,
        0,
        1,
        0,
        0,
        0,
        0,
        1,
        0,
        0,
        0,
        0,
        1
      ],
      "min": [
        1,
        0,
        0,
        0,
        0,
        1,
        0,
        0,
        0,
        0,
        1,
        0,
        0,
        0,
        0,
        1
      ],
      "type": "MAT4"
    },
    {
      "bufferView": 4,
      "byteOffset": 64,
      "componentType": 5126,
      "count": 1,
      "max": [
        1,
        0,
        0,
        0,
        0,
        1,
        0,
        0,
        0,
        0,
        1,
        0,
        0,
        0,
        0,
        1
      ],
      "min": [
        1,
        0,
        0,
        0,
        0,
        1,
        0,
        0,
        0,
        0,
        1,
        0,
        0,
        0,
        0,
        1
      ],
      "type": "MAT4"
    }
  ],
  "asset": {
    "extras": {
      "author": "gamedevsaari (https://sketchfab.com/gamedevsaari)",
      "license": "CC-BY-4.0 (http://creativecommons.org/licenses/by/4.0/)",
      "source": "https://sketchfab.com/models/54fe8d3e61c34c288044b5876cdf68c8",
      "title": "Glider"
    },
    "generator": "Sketchfab-3.39.0",
    "version": "2.0"
  },
  "bufferViews": [
    {
      "buffer": 0,
      "byteLength": 7428,
      "byteOffset": 0,
      "name": "floatBufferViews",
      "target": 34963
    },
    {
      "buffer": 0,
      "byteLength": 5368,
      "byteOffset": 7428,
      "byteStride": 8,
      "name": "floatBufferViews",
      "target": 34962
    },
    {
      "buffer": 0,
      "byteLength": 16104,
      "byteOffset": 12796,
      "byteStride": 12,
      "name": "floatBufferViews",
      "target": 34962
    },
    {
      "buffer": 0,
      "byteLength": 10736,
      "byteOffset": 28900,
      "byteStride": 16,
      "name": "floatBufferViews",
      "target": 34962
    },
    {
      "buffer": 0,
      "byteLength": 128,
      "byteOffset": 39636,
      "byteStride": 64,
      "name": "floatBufferViews"
    }
  ],
  "buffers": [
    {
      "byteLength": 39764,
      "uri": "scene.bin"
    }
  ],
  "extensionsRequired": [
    "KHR_materials_pbrSpecularGlossiness"
  ],
  "extensionsUsed": [
    "KHR_materials_pbrSpecularGlossiness"
  ],
  "images": [
    {
      "uri": "textures/Canvas_and_Grip_diffuse.png"
    },
    {
      "uri": "textures/Canvas_and_Grip_specularGlossiness.png"
    },
    {
      "uri": "textures/Cord_diffuse.png"
    }
  ],
  "materials": [
    {
      "doubleSided": true,
      "emissiveFactor": [
        0,
        0,
        0
      ],
      "extensions": {
        "KHR_materials_pbrSpecularGlossiness": {
          "diffuseFactor": [
            1,
            1,
            1,
            1
          ],
          "diffuseTexture": {
            "index": 0,
            "texCoord": 0
          },
          "glossinessFactor": 1,
          "specularFactor": [
            0,
            0,
            0
          ],
          "specularGlossinessTexture": {
            "index": 1,
            "texCoord": 0
          }
        }
      },
      "name": "Canvas_and_Grip"
    },
    {
      "doubleSided": true,
      "emissiveFactor": [
        0,
        0,
        0
      ],
      "extensions": {
        "KHR_materials_pbrSpecularGlossiness": {
          "diffuseFactor": [
            0.0900158509,
            0.0900158509,
            0.0900158509,
            1
          ],
          "glossinessFactor": 0.69950457320000003,
          "specularFactor": [
            0.36756859759999999,
            0.36756859759999999,
            0.36756859759999999
          ]
        }
      },
      "name": "Metal"
    },
    {
      "doubleSided": true,
      "emissiveFactor": [
        0,
        0,
        0
      ],
      "extensions": {
        "KHR_materials_pbrSpecularGlossiness": {
          "diffuseFactor": [
            0.0141391344,
            0.0102442197,
            0.0102442197,
            1
          ],
          "glossinessFactor": 0.32755335370000005,
          "specularFactor": [
            0,
            0,
            0
          ]
        }
      },
      "name": "Rope"
    },
    {
      "doubleSided": true,
      "emissiveFactor": [
        0,
        0,
        0
      ],
      "extensions": {
        "KHR_materials_pbrSpecularGlossiness": {
          "diffuseFactor": [
            0.059214806000000002,
            0.039764082100000001,
            0.021408114400000001,
            1
          ],
          "glossinessFactor": 0,
          "specularFactor": [
            0.64195884150000004,
            0.64195884150000004,
            0.64195884150000004
          ]
        }
      },
      "name": "Metal_0"
    },
    {
      "alphaCutoff": 1,
      "alphaMode": "MASK",
      "doubleSided": true,
      "emissiveFactor": [
        0,
        0,
        0
      ],
      "extensions": {
        "KHR_materials_pbrSpecularGlossiness": {
          "diffuseFactor": [
            1,
            1,
            1,
            1
          ],
          "diffuseTexture": {
            "index": 2,
            "texCoord": 0
          },
          "glossinessFactor": 0,
          "specularFactor": [
            0.28830030490000003,
            0.28830030490000003,
            0.28830030490000003
          ]
        }
      },
      "name": "Cord"
    }
  ],
  "meshes": [
    {
      "primitives": [
        {
          "attributes": {
            "NORMAL": 1,
            "POSITION": 0,
            "TANGENT": 2,
            "TEXCOORD_0": 3
          },
          "indices": 4,
          "material": 0,
          "mode": 4
        }
      ]
    },
    {
      "primitives": [
        {
          "attributes": {
            "NORMAL": 6,
            "POSITION": 5,
            "TANGENT": 7,
            "TEXCOORD_0": 8
          },
          "indices": 9,
          "material": 1,
          "mode": 4
        }
      ]
    },
    {
      "primitives": [
        {
          "attributes": {
            "NORMAL": 11,
            "POSITION": 10,
            "TANGENT": 12,
            "TEXCOORD_0": 13
          },
          "indices": 14,
          "material": 2,
          "mode": 4
        }
      ]
    },
    {
      "name": "Connection_Metal_0",
      "primitives": [
        {
          "attributes": {
            "NORMAL": 16,
            "POSITION": 15,
            "TANGENT": 17,
            "TEXCOORD_0": 18
          },
          "indices": 19,
          "material": 3,
          "mode": 4
        }
      ]
    },
    {
      "name": "LandingWireRight_Cord_0",
      "primitives": [
        {
          "attributes": {
            "NORMAL": 21,
            "POSITION": 20,
            "TANGENT": 22,
            "TEXCOORD_0": 23
          },
          "indices": 24,
          "material": 4,
          "mode": 4
        }
      ]
    },
    {
      "name": "LandingWireLeft_Cord_0",
      "primitives": [
        {
          "attributes": {
            "NORMAL": 26,
            "POSITION": 25,
            "TANGENT": 27,
            "TEXCOORD_0": 28
          },
          "indices": 29,
          "material": 4,
          "mode": 4
        }
      ]
    },
    {
      "name": "LandingWireFront_Cord_0",
      "primitives": [
        {
          "attributes": {
            "NORMAL": 31,
            "POSITION": 30,
            "TANGENT": 32,
            "TEXCOORD_0": 33
          },
          "indices": 34,
          "material": 4,
          "mode": 4
        }
      ]
    },
    {
      "name": "LandingWireBack_Cord_0",
      "primitives": [
        {
          "attributes": {
            "NORMAL": 36,
            "POSITION": 35,
            "TANGENT": 37,
            "TEXCOORD_0": 38
          },
          "indices": 39,
          "material": 4,
          "mode": 4
        }
      ]
    },
    {
      "name": "StrutLeft_Cord_0",
      "primitives": [
        {
          "attributes": {
            "NORMAL": 41,
            "POSITION": 40,
            "TANGENT": 42,
            "TEXCOORD_0": 43
          },
          "indices": 44,
          "material": 4,
          "mode": 4
        }
      ]
    },
    {
      "name": "StrutRight_Cord_0",
      "primitives": [
        {
          "attributes": {
            "NORMAL": 46,
            "POSITION": 45,
            "TANGENT": 47,
            "TEXCOORD_0": 48
          },
          "indices": 49,
          "material": 4,
          "mode": 4
        }
      ]
    }
  ],
  "nodes": [
    {
      "children": [
        1
      ],
      "name": "RootNode (gltf orientation matrix)",
      "rotation": [
        -0.70710678118654746,
        -0,
        -0,
        0.70710678118654757
      ]
    },
    {
      "children": [
        2
      ],
      "name": "RootNode (model correction matrix)"
    },
    {
      "children": [
        3
      ],
      "matrix": [
        1,
        0,
        0,
        0,
        0,
        0,
        1,
        0,
        0,
        -1,
        0,
        0,
        0,
        0,
        0,
        1
      ],
      "name": "97a76cfb861a45da88224f3718795852.fbx"
    },
    {
      "children": [
        4
      ],
      "name": "RootNode"
    },
    {
      "children": [
        5
      ],
      "matrix": [
        1,
        0,
        0,
        0,
        0,
        2.2204460492503131e-16,
        -1,
        0,
        0,
        1,
        2.2204460492503131e-16,
        0,
        9.028156000567833e-10,
        0,
        0,
        1
      ],
      "name": "GlobalController"
    },
    {
      "children": [
        6,
        7,
        10,
        17
      ],
      "name": ""
    },
    {
      "name": "_rootJoint"
    },
    {
      "children": [
        8,
        9
      ],
      "matrix": [
        1,
        0,
        0,
        0,
        0,
        6.123233995736766e-17,
        -1,
        0,
        0,
        1,
        6.123233995736766e-17,
        0,
        0,
        72.391624450683594,
        5.4823646545410156,
        1
      ],
      "name": ""
    },
    {
      "mesh": 0,
      "name": ""
    },
    {
      "mesh": 1,
      "name": ""
    },
    {
      "children": [
        11
      ],
      "matrix": [
        1,
        0,
        0,
        0,
        0,
        1,
        0,
        0,
        0,
        0,
        1,
        0,
        -9.028156000567833e-10,
        1.277979850769043,
        62.319561004638672,
        1
      ],
      "name": "Connection"
    },
    {
      "children": [
        12,
        13,
        15
      ],
      "name": ""
    },
    {
      "name": "_rootJoint"
    },
    {
      "children": [
        14
      ],
      "matrix": [
        1,
        1.0587911840678754e-22,
        1.6940658945086007e-21,
        0,
        1.6940658945086005e-21,
        6.1232339957367648e-17,
        -0.99999999999999989,
        0,
        -1.0587911840678761e-22,
        0.99999999999999989,
        6.1232339957367648e-17,
        0,
        -4.6586812098986519e-21,
        59.613414764404297,
        -1.3359792232513426,
        1
      ],
      "name": ""
    },
    {
      "mesh": 2,
      "name": ""
    },
    {
      "children": [
        16
      ],
      "matrix": [
        1,
        0,
        -0,
        0,
        0,
        1,
        0,
        0,
        0,
        0,
        0.3461863100528717,
        0,
        0.051363524049520493,
        0.0046794712543487549,
        0.11180916428565979,
        1
      ],
      "name": ""
    },
    {
      "mesh": 3,
      "name": "Connection_Metal_0"
    },
    {
      "children": [
        18,
        21,
        24,
        27,
        30,
        33
      ],
      "matrix": [
        1,
        0,
        0,
        0,
        0,
        1,
        0,
        0,
        0,
        0,
        1,
        0,
        -9.028156000567833e-10,
        -5.4823646545410156,
        72.391624450683594,
        1
      ],
      "name": "Body"
    },
    {
      "children": [
        19
      ],
      "matrix": [
        -0.29375149886780749,
        -0.82812789488963656,
        0.47740440076987223,
        -0,
        -0.89008741087561138,
        0.054884990894466412,
        -0.45247324647460091,
        -0,
        -0.34850321472835599,
        0.55784607536960618,
        0.75322840300944849,
        -0,
        0,
        -6.0981101989746094,
        25.252655029296875,
        1
      ],
      "name": "LandingWireRight"
    },
    {
      "children": [
        20
      ],
      "matrix": [
        -0.83787178993225098,
        -1.0260970056363946e-16,
        0,
        0,
        1.0260970056363946e-16,
        -0.83787178993225098,
        0,
        0,
        0,
        0,
        0.83787178993225098,
        0,
        0,
        0,
        0,
        1
      ],
      "name": ""
    },
    {
      "mesh": 4,
      "name": "LandingWireRight_Cord_0"
    },
    {
      "children": [
        22
      ],
      "matrix": [
        0.29375161436180075,
        -0.82812743199088101,
        0.47740438356180237,
        0,
        0.8900873458239863,
        0.054885226631327291,
        -0.45247308238510103,
        0,
        0.34850294474638888,
        0.55784633230537894,
        0.75322841676827768,
        0,
        0,
        -6.0981101989746094,
        25.252655029296875,
        1
      ],
      "name": "LandingWireLeft"
    },
    {
      "children": [
        23
      ],
      "matrix": [
        -0.83787178993225098,
        -1.0260970056363946e-16,
        0,
        0,
        1.0260970056363946e-16,
        -0.83787178993225098,
        0,
        0,
        0,
        0,
        0.83787178993225098,
        0,
        0,
        0,
        0,
        1
      ],
      "name": ""
    },
    {
      "mesh": 5,
      "name": "LandingWireLeft_Cord_0"
    },
    {
      "children": [
        25
      ],
      "matrix": [
        -0.99999999999998868,
        -1.5099580265055077e-07,
        -1.9852334701272664e-23,
        0,
        1.1976320223870122e-07,
        -0.79315583702593062,
        -0.60901873385937877,
        0,
        9.195927254831904e-08,
        -0.60901873385937189,
        0.79315583702593973,
        0,
        0,
        -6.0041103363037109,
        25.334396362304688,
        1
      ],
      "name": "LandingWireFront"
    },
    {
      "children": [
        26
      ],
      "matrix": [
        -0.83787178993225098,
        -1.0260970056363946e-16,
        0,
        0,
        1.0260970056363946e-16,
        -0.83787178993225098,
        0,
        0,
        0,
        0,
        0.83787178993225098,
        0,
        0,
        0,
        0,
        1
      ],
      "name": ""
    },
    {
      "mesh": 6,
      "name": "LandingWireFront_Cord_0"
    },
    {
      "children": [
        28
      ],
      "matrix": [
        1,
        0,
        0,
        0,
        0,
        0.90630782341182159,
        -0.42261818373388338,
        0,
        0,
        0.42261818373388338,
        0.90630782341182159,
        0,
        0,
        -5.6148490905761719,
        25.55023193359375,
        1
      ],
      "name": "LandingWireBack"
    },
    {
      "children": [
        29
      ],
      "matrix": [
        -0.83787178993225098,
        -1.0260970056363946e-16,
        0,
        0,
        1.0260970056363946e-16,
        -0.83787178993225098,
        0,
        0,
        0,
        0,
        0.83787178993225098,
        0,
        0,
        0,
        0,
        1
      ],
      "name": ""
    },
    {
      "mesh": 7,
      "name": "LandingWireBack_Cord_0"
    },
    {
      "children": [
        31
      ],
      "matrix": [
        0.34644949303443351,
        -0.79686361245961346,
        -0.4949556868185262,
        0,
        0.92613304318226386,
        0.20665376398051793,
        0.3155503867486722,
        0,
        -0.14916616541296421,
        -0.56771708798950604,
        0.80959681417314189,
        0,
        16.990928649902344,
        -14.022922515869141,
        -31.927597045898438,
        1
      ],
      "name": "StrutLeft"
    },
    {
      "children": [
        32
      ],
      "matrix": [
        -0.83787178993225098,
        -1.0260970056363946e-16,
        0,
        0,
        1.0260970056363946e-16,
        -0.83787178993225098,
        0,
        0,
        0,
        0,
        0.83787178993225098,
        0,
        0,
        0,
        0,
        1
      ],
      "name": ""
    },
    {
      "mesh": 8,
      "name": "StrutLeft_Cord_0"
    },
    {
      "children": [
        34
      ],
      "matrix": [
        -0.33027528382185894,
        -0.84836661777766997,
        -0.41375422312704024,
        -0,
        -0.9261328399870532,
        0.20665417308188583,
        0.31555033741917854,
        -0,
        0.1821983030758571,
        -0.48740976381682249,
        0.85395279804156698,
        -0,
        -16.963769912719727,
        -14.022922515869141,
        -31.927597045898438,
        1
      ],
      "name": "StrutRight"
    },
    {
      "children": [
        35
      ],
      "matrix": [
        -0.83787178993225098,
        -1.0260970056363946e-16,
        0,
        0,
        1.0260970056363946e-16,
        -0.83787178993225098,
        0,
        0,
        0,
        0,
        0.83787178993225098,
        0,
        0,
        0,
        0,
        1
      ],
      "name": ""
    },
    {
      "mesh": 9,
      "name": "StrutRight_Cord_0"
    }
  ],
  "samplers": [
    {
      "magFilter": 9729,
      "minFilter": 9987,
      "wrapS": 10497,
      "wrapT": 10497
    }
  ],
  "scene": 0,
  "scenes": [
    {
      "name": "OSG_Scene",
      "nodes": [
        0
      ]
    }
  ],
  "skins": [
    {
      "inverseBindMatrices": 50,
      "joints": [
        6
      ],
      "skeleton": 6
    },
    {
      "inverseBindMatrices": 51,
      "joints": [
        12
      ],
      "skeleton": 12
    }
  ],
  "textures": [
    {
      "sampler": 0,
      "source": 0
    },
    {
      "sampler": 0,
      "source": 1
    },
    {
      "sampler": 0,
      "source": 2
    }
  ]
}

